{
  "unpublishedPage": {
    "name": "Cantieri",
    "slug": "cantieri",
    "layouts": [
      {
        "viewMode": false,
        "dsl": {
          "widgetName": "MainContainer",
          "backgroundColor": "none",
          "rightColumn": 1174,
          "snapColumns": 64,
          "detachFromLayout": true,
          "widgetId": "0",
          "topRow": 0,
          "bottomRow": 860,
          "containerStyle": "none",
          "snapRows": 125,
          "parentRowSpace": 1,
          "type": "CANVAS_WIDGET",
          "canExtend": true,
          "version": 79,
          "minHeight": 900,
          "parentColumnSpace": 1,
          "dynamicTriggerPathList": [],
          "dynamicBindingPathList": [],
          "leftColumn": 0,
          "children": [
            {
              "boxShadow": "none",
              "mobileBottomRow": 15,
              "widgetName": "Image1",
              "displayName": "Image",
              "iconSVG": "/static/media/icon.52d8fb963abcb95c79b10f1553389f22.svg",
              "topRow": 0,
              "bottomRow": 12,
              "parentRowSpace": 10,
              "type": "IMAGE_WIDGET",
              "hideCard": false,
              "mobileRightColumn": 61,
              "animateLoading": true,
              "parentColumnSpace": 22.4375,
              "dynamicTriggerPathList": [],
              "imageShape": "RECTANGLE",
              "leftColumn": 0,
              "dynamicBindingPathList": [
                {
                  "key": "borderRadius"
                }
              ],
              "defaultImage": "https://uc913f1d224d0feec6675d3b62fd.previews.dropboxusercontent.com/p/thumb/AB8tgX7E3BrcAwGk-jb-pvE63A1AJYVQORamh83cEz0NLJD8Xol0QulBMkFmZT7kOyj0qIX6v1Rnw-axHr9THBn0zVLMi862Sj6SO2h6EZiAiZMx2B5CnBiy03fxpSGiBzSyUofmbQysUTP5Ojrs01bnwDHYdlvFssR9_qM0RXgTlUyDX-5XFJkV3TyjkT4yHc8Dad1ra8LbftiT9XaHl66_MqUy4uxEINPFAq7tJBgYYnKVOWT4KT-qCIJq2eTQtFg4q_fK-GFZ0RUMEfuBi2njXEsLCHsPIVa-XvfwdDYVeWMACjzyIFtrbz_QeGZzWKahXsCr7Rif6f0qO-7-HlzSeNgmWAs535BlQsz_mFKUbAW0F5QFLPAHjiGuyH2Jut0/p.png",
              "key": "7p50efbrdf",
              "image": "",
              "isDeprecated": false,
              "rightColumn": 11,
              "objectFit": "contain",
              "widgetId": "ocjm5gdmo5",
              "isVisible": true,
              "version": 1,
              "parentId": "0",
              "renderMode": "CANVAS",
              "isLoading": false,
              "mobileTopRow": 3,
              "maxZoomLevel": 1,
              "enableDownload": false,
              "borderRadius": "{{appsmith.theme.borderRadius.appBorderRadius}}",
              "mobileLeftColumn": 49,
              "enableRotation": false
            },
            {
              "isCompact": false,
              "boxShadow": "none",
              "mobileBottomRow": 5,
              "widgetName": "MenuButton1",
              "displayName": "Menu Button",
              "iconSVG": "/static/media/icon.0341d17d67020c8bfc560cc5928af2a7.svg",
              "topRow": 2,
              "bottomRow": 6,
              "parentRowSpace": 10,
              "type": "MENU_BUTTON_WIDGET",
              "hideCard": false,
              "mobileRightColumn": 64,
              "animateLoading": true,
              "parentColumnSpace": 22.4375,
              "dynamicTriggerPathList": [
                {
                  "key": "menuItems.menuItem1.onClick"
                },
                {
                  "key": "menuItems.menuItem2.onClick"
                },
                {
                  "key": "menuItems.menuItem3.onClick"
                }
              ],
              "leftColumn": 48,
              "dynamicBindingPathList": [
                {
                  "key": "menuColor"
                },
                {
                  "key": "borderRadius"
                }
              ],
              "isDisabled": false,
              "key": "xfoed0im2m",
              "isDeprecated": false,
              "rightColumn": 64,
              "menuVariant": "PRIMARY",
              "widgetId": "ceye0oaga7",
              "menuItems": {
                "menuItem1": {
                  "label": "Cassette",
                  "id": "menuItem1",
                  "widgetId": "",
                  "isVisible": true,
                  "isDisabled": false,
                  "index": 0,
                  "onClick": "{{navigateTo('Cassette', {}, 'SAME_WINDOW');}}"
                },
                "menuItem2": {
                  "label": "Siti",
                  "id": "menuItem2",
                  "widgetId": "",
                  "isVisible": true,
                  "isDisabled": false,
                  "index": 1,
                  "onClick": "{{navigateTo('Siti', {}, 'SAME_WINDOW');}}"
                },
                "menuItem3": {
                  "label": "Reperti",
                  "id": "menuItem3",
                  "widgetId": "",
                  "isVisible": true,
                  "isDisabled": false,
                  "index": 2,
                  "onClick": "{{navigateTo('Reperti', {}, 'SAME_WINDOW');}}"
                }
              },
              "isVisible": true,
              "label": "Menu",
              "version": 1,
              "parentId": "0",
              "renderMode": "CANVAS",
              "isLoading": false,
              "mobileTopRow": 1,
              "borderRadius": "{{appsmith.theme.borderRadius.appBorderRadius}}",
              "mobileLeftColumn": 48,
              "menuItemsSource": "STATIC",
              "menuColor": "{{appsmith.theme.colors.primaryColor}}",
              "placement": "CENTER"
            },
            {
              "boxShadow": "{{appsmith.theme.boxShadow.appBoxShadow}}",
              "widgetName": "Container1",
              "borderColor": "#fff",
              "dynamicPropertyPathList": [
                {
                  "key": "borderRadius"
                },
                {
                  "key": "boxShadow"
                }
              ],
              "topRow": 14,
              "bottomRow": 86,
              "parentRowSpace": 10,
              "type": "CONTAINER_WIDGET",
              "shouldScrollContents": true,
              "parentColumnSpace": 19.75,
              "dynamicTriggerPathList": [],
              "leftColumn": 0,
              "dynamicBindingPathList": [
                {
                  "key": "borderRadius"
                },
                {
                  "key": "boxShadow"
                }
              ],
              "children": [
                {
                  "labelTextSize": "0.875rem",
                  "boxShadow": "none",
                  "widgetName": "Canvas1",
                  "rightColumn": 632,
                  "detachFromLayout": true,
                  "widgetId": "59rw5mx0bq",
                  "containerStyle": "none",
                  "topRow": 0,
                  "bottomRow": 720,
                  "parentRowSpace": 1,
                  "isVisible": "true",
                  "canExtend": false,
                  "type": "CANVAS_WIDGET",
                  "version": 1,
                  "parentId": "mvubsemxfo",
                  "minHeight": 870,
                  "isLoading": false,
                  "parentColumnSpace": 1,
                  "dynamicTriggerPathList": [],
                  "leftColumn": 0,
                  "dynamicBindingPathList": [],
                  "borderRadius": "0px",
                  "children": [
                    {
                      "boxShadow": "{{appsmith.theme.boxShadow.appBoxShadow}}",
                      "onSort": "{{SelectQuery.run()}}",
                      "isVisibleDownload": true,
                      "iconSVG": "/static/media/icon.db8a9cbd.svg",
                      "topRow": 6,
                      "isSortable": true,
                      "onPageChange": "{{SelectQuery.run()}}",
                      "type": "TABLE_WIDGET",
                      "animateLoading": true,
                      "dynamicBindingPathList": [
                        {
                          "key": "tableData"
                        },
                        {
                          "key": "derivedColumns.customColumn1.buttonLabel"
                        },
                        {
                          "key": "primaryColumns.customColumn1.buttonLabel"
                        },
                        {
                          "key": "accentColor"
                        },
                        {
                          "key": "borderRadius"
                        },
                        {
                          "key": "boxShadow"
                        },
                        {
                          "key": "primaryColumns.customColumn1.borderRadius"
                        },
                        {
                          "key": "primaryColumns.idcantiere.computedValue"
                        },
                        {
                          "key": "primaryColumns.codice_autorizzazione.computedValue"
                        },
                        {
                          "key": "primaryColumns.descrizione.computedValue"
                        },
                        {
                          "key": "primaryColumns.data_inizio.computedValue"
                        },
                        {
                          "key": "primaryColumns.data_fine_programmata.computedValue"
                        },
                        {
                          "key": "primaryColumns.data_fine_effettiva.computedValue"
                        },
                        {
                          "key": "primaryColumns.geom.computedValue"
                        },
                        {
                          "key": "primaryColumns.url_documenti.computedValue"
                        },
                        {
                          "key": "primaryColumns.idsito.computedValue"
                        }
                      ],
                      "leftColumn": 0,
                      "delimiter": ",",
                      "accentColor": "{{appsmith.theme.colors.primaryColor}}",
                      "isVisibleFilters": true,
                      "isVisible": "true",
                      "enableClientSideSearch": true,
                      "version": 3,
                      "totalRecordsCount": 0,
                      "isLoading": false,
                      "onSearchTextChanged": "{{SelectQuery.run()}}",
                      "childStylesheet": {
                        "button": {
                          "boxShadow": "none",
                          "borderRadius": "{{appsmith.theme.borderRadius.appBorderRadius}}",
                          "buttonColor": "{{appsmith.theme.colors.primaryColor}}"
                        },
                        "iconButton": {
                          "boxShadow": "none",
                          "borderRadius": "{{appsmith.theme.borderRadius.appBorderRadius}}",
                          "menuColor": "{{appsmith.theme.colors.primaryColor}}"
                        },
                        "menuButton": {
                          "boxShadow": "none",
                          "borderRadius": "{{appsmith.theme.borderRadius.appBorderRadius}}",
                          "menuColor": "{{appsmith.theme.colors.primaryColor}}"
                        }
                      },
                      "borderRadius": "{{appsmith.theme.borderRadius.appBorderRadius}}",
                      "primaryColumnId": "idcantiere",
                      "columnSizeMap": {
                        "task": 245,
                        "step": 62,
                        "status": 75
                      },
                      "widgetName": "data_table",
                      "defaultPageSize": 0,
                      "columnOrder": [
                        "customColumn1",
                        "idcantiere",
                        "codice_autorizzazione",
                        "descrizione",
                        "data_inizio",
                        "data_fine_programmata",
                        "data_fine_effettiva",
                        "geom",
                        "url_documenti",
                        "idsito"
                      ],
                      "dynamicPropertyPathList": [
                        {
                          "key": "primaryColumns.customColumn1.borderRadius"
                        }
                      ],
                      "compactMode": "SHORT",
                      "displayName": "Table",
                      "bottomRow": 70,
                      "parentRowSpace": 10,
                      "defaultSelectedRow": "0",
                      "hideCard": false,
                      "parentColumnSpace": 16.3125,
                      "dynamicTriggerPathList": [
                        {
                          "key": "primaryColumns.customColumn1.onClick"
                        },
                        {
                          "key": "onPageChange"
                        },
                        {
                          "key": "onSearchTextChanged"
                        },
                        {
                          "key": "onSort"
                        }
                      ],
                      "primaryColumns": {
                        "customColumn1": {
                          "isCellVisible": true,
                          "boxShadow": "none",
                          "isDerived": true,
                          "computedValue": "",
                          "onClick": "{{showModal('Delete_Modal')}}",
                          "buttonColor": "#DD4B34",
                          "buttonStyle": "rgb(3, 179, 101)",
                          "index": 5,
                          "isVisible": true,
                          "label": "",
                          "labelColor": "#FFFFFF",
                          "buttonLabel": "{{data_table.sanitizedTableData.map((currentRow) => ( 'Cancella'))}}",
                          "columnType": "button",
                          "borderRadius": "{{data_table.sanitizedTableData.map((currentRow) => ( appsmith.theme.borderRadius.appBorderRadius))}}",
                          "menuColor": "#03B365",
                          "width": 150,
                          "enableFilter": true,
                          "enableSort": true,
                          "id": "customColumn1",
                          "isDisabled": false,
                          "buttonLabelColor": "#FFFFFF"
                        },
                        "idcantiere": {
                          "index": 0,
                          "width": 150,
                          "id": "idcantiere",
                          "horizontalAlignment": "LEFT",
                          "verticalAlignment": "CENTER",
                          "columnType": "text",
                          "textColor": "",
                          "textSize": "0.875rem",
                          "enableFilter": true,
                          "enableSort": true,
                          "isVisible": true,
                          "isDisabled": false,
                          "isCellVisible": true,
                          "isDerived": false,
                          "label": "idcantiere",
                          "computedValue": "{{data_table.sanitizedTableData.map((currentRow) => ( currentRow.idcantiere))}}",
                          "cellBackground": ""
                        },
                        "codice_autorizzazione": {
                          "index": 1,
                          "width": 150,
                          "id": "codice_autorizzazione",
                          "horizontalAlignment": "LEFT",
                          "verticalAlignment": "CENTER",
                          "columnType": "text",
                          "textColor": "",
                          "textSize": "0.875rem",
                          "enableFilter": true,
                          "enableSort": true,
                          "isVisible": true,
                          "isDisabled": false,
                          "isCellVisible": true,
                          "isDerived": false,
                          "label": "codice_autorizzazione",
                          "computedValue": "{{data_table.sanitizedTableData.map((currentRow) => ( currentRow.codice_autorizzazione))}}",
                          "cellBackground": ""
                        },
                        "descrizione": {
                          "index": 2,
                          "width": 150,
                          "id": "descrizione",
                          "horizontalAlignment": "LEFT",
                          "verticalAlignment": "CENTER",
                          "columnType": "text",
                          "textColor": "",
                          "textSize": "0.875rem",
                          "enableFilter": true,
                          "enableSort": true,
                          "isVisible": true,
                          "isDisabled": false,
                          "isCellVisible": true,
                          "isDerived": false,
                          "label": "descrizione",
                          "computedValue": "{{data_table.sanitizedTableData.map((currentRow) => ( currentRow.descrizione))}}",
                          "cellBackground": ""
                        },
                        "data_inizio": {
                          "index": 3,
                          "width": 150,
                          "id": "data_inizio",
                          "horizontalAlignment": "LEFT",
                          "verticalAlignment": "CENTER",
                          "columnType": "text",
                          "textColor": "",
                          "textSize": "0.875rem",
                          "enableFilter": true,
                          "enableSort": true,
                          "isVisible": true,
                          "isDisabled": false,
                          "isCellVisible": true,
                          "isDerived": false,
                          "label": "data_inizio",
                          "computedValue": "{{data_table.sanitizedTableData.map((currentRow) => ( currentRow.data_inizio))}}",
                          "cellBackground": ""
                        },
                        "data_fine_programmata": {
                          "index": 4,
                          "width": 150,
                          "id": "data_fine_programmata",
                          "horizontalAlignment": "LEFT",
                          "verticalAlignment": "CENTER",
                          "columnType": "text",
                          "textColor": "",
                          "textSize": "0.875rem",
                          "enableFilter": true,
                          "enableSort": true,
                          "isVisible": true,
                          "isDisabled": false,
                          "isCellVisible": true,
                          "isDerived": false,
                          "label": "data_fine_programmata",
                          "computedValue": "{{data_table.sanitizedTableData.map((currentRow) => ( currentRow.data_fine_programmata))}}",
                          "cellBackground": ""
                        },
                        "data_fine_effettiva": {
                          "index": 5,
                          "width": 150,
                          "id": "data_fine_effettiva",
                          "horizontalAlignment": "LEFT",
                          "verticalAlignment": "CENTER",
                          "columnType": "text",
                          "textColor": "",
                          "textSize": "0.875rem",
                          "enableFilter": true,
                          "enableSort": true,
                          "isVisible": true,
                          "isDisabled": false,
                          "isCellVisible": true,
                          "isDerived": false,
                          "label": "data_fine_effettiva",
                          "computedValue": "{{data_table.sanitizedTableData.map((currentRow) => ( currentRow.data_fine_effettiva))}}",
                          "cellBackground": ""
                        },
                        "geom": {
                          "index": 6,
                          "width": 150,
                          "id": "geom",
                          "horizontalAlignment": "LEFT",
                          "verticalAlignment": "CENTER",
                          "columnType": "text",
                          "textColor": "",
                          "textSize": "0.875rem",
                          "enableFilter": true,
                          "enableSort": true,
                          "isVisible": true,
                          "isDisabled": false,
                          "isCellVisible": true,
                          "isDerived": false,
                          "label": "geom",
                          "computedValue": "{{data_table.sanitizedTableData.map((currentRow) => ( currentRow.geom))}}",
                          "cellBackground": ""
                        },
                        "url_documenti": {
                          "index": 7,
                          "width": 150,
                          "id": "url_documenti",
                          "horizontalAlignment": "LEFT",
                          "verticalAlignment": "CENTER",
                          "columnType": "text",
                          "textColor": "",
                          "textSize": "0.875rem",
                          "enableFilter": true,
                          "enableSort": true,
                          "isVisible": true,
                          "isDisabled": false,
                          "isCellVisible": true,
                          "isDerived": false,
                          "label": "url_documenti",
                          "computedValue": "{{data_table.sanitizedTableData.map((currentRow) => ( currentRow.url_documenti))}}",
                          "cellBackground": ""
                        },
                        "idsito": {
                          "index": 8,
                          "width": 150,
                          "id": "idsito",
                          "horizontalAlignment": "LEFT",
                          "verticalAlignment": "CENTER",
                          "columnType": "text",
                          "textColor": "",
                          "textSize": "0.875rem",
                          "enableFilter": true,
                          "enableSort": true,
                          "isVisible": true,
                          "isDisabled": false,
                          "isCellVisible": true,
                          "isDerived": false,
                          "label": "idsito",
                          "computedValue": "{{data_table.sanitizedTableData.map((currentRow) => ( currentRow.idsito))}}",
                          "cellBackground": ""
                        }
                      },
                      "key": "zba5qel0au",
                      "derivedColumns": {
                        "customColumn1": {
                          "isCellVisible": true,
                          "boxShadow": "none",
                          "isDerived": true,
                          "computedValue": "",
                          "onClick": "{{showModal('Delete_Modal')}}",
                          "buttonColor": "#DD4B34",
                          "buttonStyle": "rgb(3, 179, 101)",
                          "index": 5,
                          "isVisible": true,
                          "label": "",
                          "labelColor": "#FFFFFF",
                          "buttonLabel": "{{data_table.sanitizedTableData.map((currentRow) => ( 'Cancella'))}}",
                          "columnType": "button",
                          "borderRadius": "0px",
                          "menuColor": "#03B365",
                          "width": 150,
                          "enableFilter": true,
                          "enableSort": true,
                          "id": "customColumn1",
                          "isDisabled": false,
                          "buttonLabelColor": "#FFFFFF"
                        }
                      },
                      "labelTextSize": "0.875rem",
                      "rightColumn": 64,
                      "textSize": "0.875rem",
                      "widgetId": "hpy3pb4xft",
                      "tableData": "{{SelectQuery.data}}",
                      "label": "Data",
                      "searchKey": "",
                      "parentId": "59rw5mx0bq",
                      "serverSidePaginationEnabled": true,
                      "renderMode": "CANVAS",
                      "horizontalAlignment": "LEFT",
                      "isVisibleSearch": true,
                      "isVisiblePagination": true,
                      "verticalAlignment": "CENTER"
                    },
                    {
                      "boxShadow": "none",
                      "widgetName": "Text16",
                      "dynamicPropertyPathList": [
                        {
                          "key": "fontSize"
                        }
                      ],
                      "topRow": 1,
                      "bottomRow": 5,
                      "parentRowSpace": 10,
                      "type": "TEXT_WIDGET",
                      "parentColumnSpace": 11.78515625,
                      "dynamicTriggerPathList": [],
                      "overflow": "NONE",
                      "fontFamily": "{{appsmith.theme.fontFamily.appFont}}",
                      "leftColumn": 0,
                      "dynamicBindingPathList": [
                        {
                          "key": "fontFamily"
                        }
                      ],
                      "text": "Cantieri - Elenco",
                      "labelTextSize": "0.875rem",
                      "rightColumn": 54,
                      "textAlign": "LEFT",
                      "dynamicHeight": "FIXED",
                      "widgetId": "urzv99hdc8",
                      "isVisible": "true",
                      "fontStyle": "BOLD",
                      "textColor": "#231F20",
                      "version": 1,
                      "parentId": "59rw5mx0bq",
                      "isLoading": false,
                      "borderRadius": "0px",
                      "maxDynamicHeight": 9000,
                      "fontSize": "1.5rem",
                      "minDynamicHeight": 4
                    },
                    {
                      "labelTextSize": "0.875rem",
                      "boxShadow": "none",
                      "widgetName": "refresh_btn",
                      "rightColumn": 64,
                      "onClick": "{{SelectQuery.run()}}",
                      "iconName": "refresh",
                      "buttonColor": "{{appsmith.theme.colors.primaryColor}}",
                      "widgetId": "xp5u9a9nzq",
                      "topRow": 1,
                      "bottomRow": 5,
                      "parentRowSpace": 10,
                      "isVisible": "true",
                      "type": "ICON_BUTTON_WIDGET",
                      "version": 1,
                      "parentId": "59rw5mx0bq",
                      "isLoading": false,
                      "parentColumnSpace": 12.0703125,
                      "dynamicTriggerPathList": [
                        {
                          "key": "onClick"
                        }
                      ],
                      "borderRadius": "{{appsmith.theme.borderRadius.appBorderRadius}}",
                      "leftColumn": 60,
                      "dynamicBindingPathList": [
                        {
                          "key": "buttonColor"
                        },
                        {
                          "key": "borderRadius"
                        }
                      ],
                      "buttonVariant": "PRIMARY",
                      "isDisabled": false
                    },
                    {
                      "labelTextSize": "0.875rem",
                      "boxShadow": "none",
                      "widgetName": "add_btn",
                      "rightColumn": 59,
                      "onClick": "{{showModal('Insert_Modal')}}",
                      "iconName": "add",
                      "buttonColor": "{{appsmith.theme.colors.primaryColor}}",
                      "widgetId": "nh3cu4lb1g",
                      "topRow": 1,
                      "bottomRow": 5,
                      "parentRowSpace": 10,
                      "isVisible": "true",
                      "type": "ICON_BUTTON_WIDGET",
                      "version": 1,
                      "parentId": "59rw5mx0bq",
                      "isLoading": false,
                      "parentColumnSpace": 12.0703125,
                      "dynamicTriggerPathList": [
                        {
                          "key": "onClick"
                        }
                      ],
                      "borderRadius": "{{appsmith.theme.borderRadius.appBorderRadius}}",
                      "leftColumn": 55,
                      "dynamicBindingPathList": [
                        {
                          "key": "buttonColor"
                        },
                        {
                          "key": "borderRadius"
                        }
                      ],
                      "buttonVariant": "PRIMARY",
                      "isDisabled": false
                    }
                  ]
                }
              ],
              "borderWidth": "0",
              "labelTextSize": "0.875rem",
              "backgroundColor": "#FFFFFF",
              "rightColumn": 39,
              "dynamicHeight": "FIXED",
              "widgetId": "mvubsemxfo",
              "containerStyle": "card",
              "isVisible": "true",
              "version": 1,
              "parentId": "0",
              "isLoading": false,
              "borderRadius": "{{appsmith.theme.borderRadius.appBorderRadius}}",
              "maxDynamicHeight": 9000,
              "minDynamicHeight": 4
            },
            {
              "boxShadow": "none",
              "widgetName": "Delete_Modal",
              "topRow": 13,
              "bottomRow": 37,
              "parentRowSpace": 10,
              "type": "MODAL_WIDGET",
              "shouldScrollContents": false,
              "parentColumnSpace": 18.8828125,
              "dynamicTriggerPathList": [],
              "leftColumn": 21,
              "dynamicBindingPathList": [
                {
                  "key": "borderRadius"
                }
              ],
              "children": [
                {
                  "boxShadow": "none",
                  "widgetName": "Canvas3",
                  "topRow": 0,
                  "bottomRow": 240,
                  "parentRowSpace": 1,
                  "canExtend": true,
                  "type": "CANVAS_WIDGET",
                  "shouldScrollContents": false,
                  "minHeight": 240,
                  "parentColumnSpace": 1,
                  "dynamicTriggerPathList": [],
                  "leftColumn": 0,
                  "dynamicBindingPathList": [],
                  "children": [
                    {
                      "boxShadow": "none",
                      "widgetName": "Alert_text",
                      "dynamicPropertyPathList": [
                        {
                          "key": "fontSize"
                        }
                      ],
                      "topRow": 1,
                      "bottomRow": 5,
                      "type": "TEXT_WIDGET",
                      "dynamicTriggerPathList": [],
                      "overflow": "NONE",
                      "fontFamily": "System Default",
                      "leftColumn": 1,
                      "dynamicBindingPathList": [],
                      "text": "Delete Row",
                      "labelTextSize": "0.875rem",
                      "rightColumn": 41,
                      "textAlign": "LEFT",
                      "dynamicHeight": "FIXED",
                      "widgetId": "35yoxo4oec",
                      "isVisible": "true",
                      "fontStyle": "BOLD",
                      "textColor": "#231F20",
                      "version": 1,
                      "parentId": "zi8fjakv8o",
                      "isLoading": false,
                      "borderRadius": "0px",
                      "maxDynamicHeight": 9000,
                      "fontSize": "1.5rem",
                      "minDynamicHeight": 4
                    },
                    {
                      "boxShadow": "none",
                      "widgetName": "Button1",
                      "onClick": "{{closeModal('Delete_Modal')}}",
                      "dynamicPropertyPathList": [],
                      "buttonColor": "#2E3D49",
                      "topRow": 17,
                      "bottomRow": 21,
                      "type": "BUTTON_WIDGET",
                      "dynamicTriggerPathList": [
                        {
                          "key": "onClick"
                        }
                      ],
                      "leftColumn": 34,
                      "dynamicBindingPathList": [
                        {
                          "key": "borderRadius"
                        }
                      ],
                      "text": "Cancel",
                      "isDisabled": false,
                      "labelTextSize": "0.875rem",
                      "rightColumn": 46,
                      "isDefaultClickDisabled": true,
                      "widgetId": "lryg8kw537",
                      "isVisible": "true",
                      "version": 1,
                      "recaptchaType": "V3",
                      "parentId": "zi8fjakv8o",
                      "isLoading": false,
                      "borderRadius": "{{appsmith.theme.borderRadius.appBorderRadius}}",
                      "buttonVariant": "TERTIARY"
                    },
                    {
                      "boxShadow": "none",
                      "widgetName": "Delete_Button",
                      "onClick": "{{DeleteQuery.run(() => SelectQuery.run(() => closeModal('Delete_Modal')), () => {})}}",
                      "dynamicPropertyPathList": [
                        {
                          "key": "onClick"
                        }
                      ],
                      "buttonColor": "#DD4B34",
                      "topRow": 17,
                      "bottomRow": 21,
                      "type": "BUTTON_WIDGET",
                      "dynamicTriggerPathList": [
                        {
                          "key": "onClick"
                        }
                      ],
                      "leftColumn": 46,
                      "dynamicBindingPathList": [
                        {
                          "key": "borderRadius"
                        }
                      ],
                      "text": "Confirm",
                      "isDisabled": false,
                      "labelTextSize": "0.875rem",
                      "rightColumn": 64,
                      "isDefaultClickDisabled": true,
                      "widgetId": "qq02lh7ust",
                      "isVisible": "true",
                      "version": 1,
                      "recaptchaType": "V3",
                      "parentId": "zi8fjakv8o",
                      "isLoading": false,
                      "borderRadius": "{{appsmith.theme.borderRadius.appBorderRadius}}",
                      "buttonVariant": "PRIMARY"
                    },
                    {
                      "boxShadow": "none",
                      "widgetName": "Text12",
                      "topRow": 8,
                      "bottomRow": 12,
                      "parentRowSpace": 10,
                      "type": "TEXT_WIDGET",
                      "parentColumnSpace": 6.875,
                      "dynamicTriggerPathList": [],
                      "overflow": "NONE",
                      "fontFamily": "System Default",
                      "leftColumn": 1,
                      "dynamicBindingPathList": [],
                      "text": "Are you sure you want to delete this item?",
                      "labelTextSize": "0.875rem",
                      "rightColumn": 63,
                      "textAlign": "LEFT",
                      "dynamicHeight": "FIXED",
                      "widgetId": "48uac29g6e",
                      "isVisible": "true",
                      "fontStyle": "",
                      "textColor": "#231F20",
                      "version": 1,
                      "parentId": "zi8fjakv8o",
                      "isLoading": false,
                      "borderRadius": "0px",
                      "maxDynamicHeight": 9000,
                      "fontSize": "1rem",
                      "minDynamicHeight": 4
                    }
                  ],
                  "isDisabled": false,
                  "labelTextSize": "0.875rem",
                  "rightColumn": 453.1875,
                  "detachFromLayout": true,
                  "widgetId": "zi8fjakv8o",
                  "isVisible": "true",
                  "version": 1,
                  "parentId": "i3whp03wf0",
                  "isLoading": false,
                  "borderRadius": "0px"
                }
              ],
              "height": 240,
              "labelTextSize": "0.875rem",
              "rightColumn": 45,
              "detachFromLayout": true,
              "dynamicHeight": "FIXED",
              "widgetId": "i3whp03wf0",
              "canOutsideClickClose": true,
              "canEscapeKeyClose": true,
              "version": 2,
              "parentId": "0",
              "isLoading": false,
              "borderRadius": "{{appsmith.theme.borderRadius.appBorderRadius}}",
              "maxDynamicHeight": 9000,
              "width": 456,
              "minDynamicHeight": 4
            },
            {
              "boxShadow": "none",
              "widgetName": "Insert_Modal",
              "topRow": 16,
              "bottomRow": 40,
              "parentRowSpace": 10,
              "type": "MODAL_WIDGET",
              "shouldScrollContents": false,
              "parentColumnSpace": 18.8828125,
              "dynamicTriggerPathList": [],
              "leftColumn": 17,
              "dynamicBindingPathList": [],
              "children": [
                {
                  "boxShadow": "none",
                  "widgetName": "Canvas4",
                  "topRow": 0,
                  "bottomRow": 880,
                  "parentRowSpace": 1,
                  "canExtend": true,
                  "type": "CANVAS_WIDGET",
                  "shouldScrollContents": false,
                  "minHeight": 884,
                  "parentColumnSpace": 1,
                  "dynamicTriggerPathList": [],
                  "leftColumn": 0,
                  "dynamicBindingPathList": [],
                  "children": [
                    {
                      "schema": {
                        "__root_schema__": {
                          "labelTextSize": "0.875rem",
                          "identifier": "__root_schema__",
                          "boxShadow": "none",
                          "isRequired": false,
                          "isCustomField": false,
                          "defaultValue": "{{((sourceData, formData, fieldState) => (sourceData))(insert_form.sourceData, insert_form.formData, insert_form.fieldState)}}",
                          "dataType": "object",
                          "cellBorderRadius": "{{appsmith.theme.borderRadius.appBorderRadius}}",
                          "accessor": "__root_schema__",
                          "isVisible": true,
                          "label": "",
                          "originalIdentifier": "__root_schema__",
                          "borderRadius": "{{appsmith.theme.borderRadius.appBorderRadius}}",
                          "children": {
                            "col8": {
                              "labelTextSize": "0.875rem",
                              "identifier": "col8",
                              "isRequired": false,
                              "boxShadow": "none",
                              "isCustomField": false,
                              "defaultValue": "{{((sourceData, formData, fieldState) => (sourceData.col8))(insert_form.sourceData, insert_form.formData, insert_form.fieldState)}}",
                              "accentColor": "{{appsmith.theme.colors.primaryColor}}",
                              "dataType": "null",
                              "cellBorderRadius": "0px",
                              "accessor": "col8",
                              "isVisible": true,
                              "label": "Col 8",
                              "originalIdentifier": "col8",
                              "borderRadius": "{{appsmith.theme.borderRadius.appBorderRadius}}",
                              "children": {},
                              "isSpellCheck": false,
                              "iconAlign": "left",
                              "position": 7,
                              "isDisabled": false,
                              "cellBoxShadow": "none",
                              "fieldType": "Text Input"
                            },
                            "col12": {
                              "labelTextSize": "0.875rem",
                              "identifier": "col12",
                              "isRequired": false,
                              "boxShadow": "none",
                              "isCustomField": false,
                              "defaultValue": "{{((sourceData, formData, fieldState) => (sourceData.col12))(insert_form.sourceData, insert_form.formData, insert_form.fieldState)}}",
                              "accentColor": "{{appsmith.theme.colors.primaryColor}}",
                              "dataType": "null",
                              "cellBorderRadius": "0px",
                              "accessor": "col12",
                              "isVisible": true,
                              "label": "Col 12",
                              "originalIdentifier": "col12",
                              "borderRadius": "{{appsmith.theme.borderRadius.appBorderRadius}}",
                              "children": {},
                              "isSpellCheck": false,
                              "iconAlign": "left",
                              "position": 11,
                              "isDisabled": false,
                              "cellBoxShadow": "none",
                              "fieldType": "Text Input"
                            },
                            "col9": {
                              "labelTextSize": "0.875rem",
                              "identifier": "col9",
                              "isRequired": false,
                              "boxShadow": "none",
                              "isCustomField": false,
                              "defaultValue": "{{((sourceData, formData, fieldState) => (sourceData.col9))(insert_form.sourceData, insert_form.formData, insert_form.fieldState)}}",
                              "accentColor": "{{appsmith.theme.colors.primaryColor}}",
                              "dataType": "null",
                              "cellBorderRadius": "0px",
                              "accessor": "col9",
                              "isVisible": true,
                              "label": "Col 9",
                              "originalIdentifier": "col9",
                              "borderRadius": "{{appsmith.theme.borderRadius.appBorderRadius}}",
                              "children": {},
                              "isSpellCheck": false,
                              "iconAlign": "left",
                              "position": 8,
                              "isDisabled": false,
                              "cellBoxShadow": "none",
                              "fieldType": "Text Input"
                            },
                            "col11": {
                              "labelTextSize": "0.875rem",
                              "identifier": "col11",
                              "isRequired": false,
                              "boxShadow": "none",
                              "isCustomField": false,
                              "defaultValue": "{{((sourceData, formData, fieldState) => (sourceData.col11))(insert_form.sourceData, insert_form.formData, insert_form.fieldState)}}",
                              "accentColor": "{{appsmith.theme.colors.primaryColor}}",
                              "dataType": "null",
                              "cellBorderRadius": "0px",
                              "accessor": "col11",
                              "isVisible": true,
                              "label": "Col 11",
                              "originalIdentifier": "col11",
                              "borderRadius": "{{appsmith.theme.borderRadius.appBorderRadius}}",
                              "children": {},
                              "isSpellCheck": false,
                              "iconAlign": "left",
                              "position": 10,
                              "isDisabled": false,
                              "cellBoxShadow": "none",
                              "fieldType": "Text Input"
                            },
                            "col6": {
                              "labelTextSize": "0.875rem",
                              "identifier": "col6",
                              "isRequired": false,
                              "boxShadow": "none",
                              "isCustomField": false,
                              "defaultValue": "{{((sourceData, formData, fieldState) => (sourceData.col6))(insert_form.sourceData, insert_form.formData, insert_form.fieldState)}}",
                              "accentColor": "{{appsmith.theme.colors.primaryColor}}",
                              "dataType": "null",
                              "cellBorderRadius": "0px",
                              "accessor": "col6",
                              "isVisible": true,
                              "label": "Col 6",
                              "originalIdentifier": "col6",
                              "borderRadius": "{{appsmith.theme.borderRadius.appBorderRadius}}",
                              "children": {},
                              "isSpellCheck": false,
                              "iconAlign": "left",
                              "position": 5,
                              "isDisabled": false,
                              "cellBoxShadow": "none",
                              "fieldType": "Text Input"
                            },
                            "col10": {
                              "labelTextSize": "0.875rem",
                              "identifier": "col10",
                              "isRequired": false,
                              "boxShadow": "none",
                              "isCustomField": false,
                              "defaultValue": "{{((sourceData, formData, fieldState) => (sourceData.col10))(insert_form.sourceData, insert_form.formData, insert_form.fieldState)}}",
                              "accentColor": "{{appsmith.theme.colors.primaryColor}}",
                              "dataType": "null",
                              "cellBorderRadius": "0px",
                              "accessor": "col10",
                              "isVisible": true,
                              "label": "Col 10",
                              "originalIdentifier": "col10",
                              "borderRadius": "{{appsmith.theme.borderRadius.appBorderRadius}}",
                              "children": {},
                              "isSpellCheck": false,
                              "iconAlign": "left",
                              "position": 9,
                              "isDisabled": false,
                              "cellBoxShadow": "none",
                              "fieldType": "Text Input"
                            },
                            "col7": {
                              "labelTextSize": "0.875rem",
                              "identifier": "col7",
                              "isRequired": false,
                              "boxShadow": "none",
                              "isCustomField": false,
                              "defaultValue": "{{((sourceData, formData, fieldState) => (sourceData.col7))(insert_form.sourceData, insert_form.formData, insert_form.fieldState)}}",
                              "accentColor": "{{appsmith.theme.colors.primaryColor}}",
                              "dataType": "null",
                              "cellBorderRadius": "0px",
                              "accessor": "col7",
                              "isVisible": true,
                              "label": "Col 7",
                              "originalIdentifier": "col7",
                              "borderRadius": "{{appsmith.theme.borderRadius.appBorderRadius}}",
                              "children": {},
                              "isSpellCheck": false,
                              "iconAlign": "left",
                              "position": 6,
                              "isDisabled": false,
                              "cellBoxShadow": "none",
                              "fieldType": "Text Input"
                            },
                            "col4": {
                              "labelTextSize": "0.875rem",
                              "identifier": "col4",
                              "isRequired": false,
                              "boxShadow": "none",
                              "isCustomField": false,
                              "defaultValue": "{{((sourceData, formData, fieldState) => (sourceData.col4))(insert_form.sourceData, insert_form.formData, insert_form.fieldState)}}",
                              "accentColor": "{{appsmith.theme.colors.primaryColor}}",
                              "dataType": "boolean",
                              "cellBorderRadius": "0px",
                              "accessor": "col4",
                              "isVisible": true,
                              "label": "Col 4",
                              "alignWidget": "LEFT",
                              "originalIdentifier": "col4",
                              "borderRadius": "0px",
                              "children": {},
                              "position": 3,
                              "isDisabled": false,
                              "sourceData": true,
                              "cellBoxShadow": "none",
                              "fieldType": "Switch"
                            },
                            "col5": {
                              "labelTextSize": "0.875rem",
                              "identifier": "col5",
                              "boxShadow": "none",
                              "isRequired": false,
                              "isCustomField": false,
                              "defaultValue": "{{((sourceData, formData, fieldState) => (sourceData.col5))(insert_form.sourceData, insert_form.formData, insert_form.fieldState)}}",
                              "accentColor": "{{appsmith.theme.colors.primaryColor}}",
                              "dataType": "number",
                              "accessor": "col5",
                              "isVisible": true,
                              "label": "Col 5",
                              "originalIdentifier": "col5",
                              "borderRadius": "{{appsmith.theme.borderRadius.appBorderRadius}}",
                              "children": {},
                              "isSpellCheck": false,
                              "iconAlign": "left",
                              "position": 4,
                              "isDisabled": false,
                              "fieldType": "Number Input"
                            },
                            "col2": {
                              "labelTextSize": "0.875rem",
                              "identifier": "col2",
                              "isRequired": false,
                              "boxShadow": "none",
                              "isCustomField": false,
                              "defaultValue": "{{((sourceData, formData, fieldState) => (sourceData.col2))(insert_form.sourceData, insert_form.formData, insert_form.fieldState)}}",
                              "accentColor": "{{appsmith.theme.colors.primaryColor}}",
                              "dataType": "string",
                              "cellBorderRadius": "0px",
                              "accessor": "col2",
                              "isVisible": true,
                              "label": "Col 2",
                              "originalIdentifier": "col2",
                              "borderRadius": "{{appsmith.theme.borderRadius.appBorderRadius}}",
                              "children": {},
                              "isSpellCheck": false,
                              "iconAlign": "left",
                              "position": 1,
                              "isDisabled": false,
                              "sourceData": "skill B",
                              "cellBoxShadow": "none",
                              "fieldType": "Text Input"
                            },
                            "col3": {
                              "labelTextSize": "0.875rem",
                              "identifier": "col3",
                              "isRequired": false,
                              "boxShadow": "none",
                              "isCustomField": false,
                              "defaultValue": "{{((sourceData, formData, fieldState) => (sourceData.col3))(insert_form.sourceData, insert_form.formData, insert_form.fieldState)}}",
                              "accentColor": "{{appsmith.theme.colors.primaryColor}}",
                              "dataType": "number",
                              "cellBorderRadius": "0px",
                              "accessor": "col3",
                              "isVisible": true,
                              "label": "Col 3",
                              "originalIdentifier": "col3",
                              "borderRadius": "{{appsmith.theme.borderRadius.appBorderRadius}}",
                              "children": {},
                              "isSpellCheck": false,
                              "iconAlign": "left",
                              "position": 2,
                              "isDisabled": false,
                              "sourceData": 9,
                              "cellBoxShadow": "none",
                              "fieldType": "Number Input"
                            },
                            "col1": {
                              "labelTextSize": "0.875rem",
                              "identifier": "col1",
                              "boxShadow": "none",
                              "isRequired": false,
                              "isCustomField": false,
                              "defaultValue": "{{((sourceData, formData, fieldState) => (sourceData.col1))(insert_form.sourceData, insert_form.formData, insert_form.fieldState)}}",
                              "accentColor": "{{appsmith.theme.colors.primaryColor}}",
                              "dataType": "number",
                              "accessor": "col1",
                              "isVisible": true,
                              "label": "Col 1",
                              "originalIdentifier": "col1",
                              "borderRadius": "{{appsmith.theme.borderRadius.appBorderRadius}}",
                              "children": {},
                              "isSpellCheck": false,
                              "iconAlign": "left",
                              "position": 0,
                              "isDisabled": false,
                              "sourceData": 5,
                              "fieldType": "Number Input"
                            }
                          },
                          "position": -1,
                          "isDisabled": false,
                          "sourceData": {
                            "col4": true,
                            "col2": "skill B",
                            "col3": 9,
                            "col1": 5
                          },
                          "cellBoxShadow": "none",
                          "fieldType": "Object"
                        }
                      },
                      "boxShadow": "none",
                      "widgetName": "insert_form",
                      "submitButtonStyles": {
                        "boxShadow": "none",
                        "borderRadius": "{{appsmith.theme.borderRadius.appBorderRadius}}",
                        "buttonColor": "{{appsmith.theme.colors.primaryColor}}",
                        "buttonVariant": "PRIMARY"
                      },
                      "dynamicPropertyPathList": [
                        {
                          "key": "schema.__root_schema__.children.date_of_birth.defaultValue"
                        },
                        {
                          "key": "schema.__root_schema__.children.col5.defaultValue"
                        },
                        {
                          "key": "schema.__root_schema__.children.col4.defaultValue"
                        },
                        {
                          "key": "onSubmit"
                        }
                      ],
                      "displayName": "JSON Form",
                      "iconSVG": "/static/media/icon.6bacf7df.svg",
                      "onSubmit": "{{InsertQuery.run(\n\t() => SelectQuery.run()\n\t\t\t\t\t.then(() => closeModal('Insert_Modal')), \n\t(error) => showAlert(`Error while inserting resource!\\n ${error}`,'error'))\n}}",
                      "topRow": 0,
                      "bottomRow": 81,
                      "fieldLimitExceeded": false,
                      "parentRowSpace": 10,
                      "title": "Insert Row",
                      "type": "JSON_FORM_WIDGET",
                      "hideCard": false,
                      "animateLoading": true,
                      "parentColumnSpace": 8.125,
                      "dynamicTriggerPathList": [
                        {
                          "key": "onSubmit"
                        }
                      ],
                      "leftColumn": 0,
                      "dynamicBindingPathList": [
                        {
                          "key": "schema.__root_schema__.defaultValue"
                        },
                        {
                          "key": "sourceData"
                        },
                        {
                          "key": "schema.__root_schema__.children.col3.defaultValue"
                        },
                        {
                          "key": "schema.__root_schema__.children.col4.defaultValue"
                        },
                        {
                          "key": "schema.__root_schema__.children.col5.defaultValue"
                        },
                        {
                          "key": "schema.__root_schema__.children.col2.defaultValue"
                        },
                        {
                          "key": "schema.__root_schema__.children.col6.defaultValue"
                        },
                        {
                          "key": "schema.__root_schema__.children.col7.defaultValue"
                        },
                        {
                          "key": "schema.__root_schema__.children.col8.defaultValue"
                        },
                        {
                          "key": "schema.__root_schema__.children.col9.defaultValue"
                        },
                        {
                          "key": "schema.__root_schema__.children.col10.defaultValue"
                        },
                        {
                          "key": "schema.__root_schema__.children.col11.defaultValue"
                        },
                        {
                          "key": "schema.__root_schema__.children.col12.defaultValue"
                        },
                        {
                          "key": "schema.__root_schema__.children.col5.accentColor"
                        },
                        {
                          "key": "schema.__root_schema__.children.col5.borderRadius"
                        },
                        {
                          "key": "schema.__root_schema__.borderRadius"
                        },
                        {
                          "key": "schema.__root_schema__.cellBorderRadius"
                        },
                        {
                          "key": "schema.__root_schema__.children.col1.defaultValue"
                        },
                        {
                          "key": "schema.__root_schema__.children.col1.accentColor"
                        },
                        {
                          "key": "schema.__root_schema__.children.col1.borderRadius"
                        },
                        {
                          "key": "borderRadius"
                        },
                        {
                          "key": "submitButtonStyles.buttonColor"
                        },
                        {
                          "key": "submitButtonStyles.borderRadius"
                        },
                        {
                          "key": "resetButtonStyles.borderRadius"
                        },
                        {
                          "key": "resetButtonStyles.buttonColor"
                        },
                        {
                          "key": "schema.__root_schema__.children.col2.accentColor"
                        },
                        {
                          "key": "schema.__root_schema__.children.col2.borderRadius"
                        },
                        {
                          "key": "schema.__root_schema__.children.col3.accentColor"
                        },
                        {
                          "key": "schema.__root_schema__.children.col3.borderRadius"
                        },
                        {
                          "key": "schema.__root_schema__.children.col4.accentColor"
                        },
                        {
                          "key": "schema.__root_schema__.children.col6.accentColor"
                        },
                        {
                          "key": "schema.__root_schema__.children.col6.borderRadius"
                        },
                        {
                          "key": "schema.__root_schema__.children.col7.accentColor"
                        },
                        {
                          "key": "schema.__root_schema__.children.col7.borderRadius"
                        },
                        {
                          "key": "schema.__root_schema__.children.col8.accentColor"
                        },
                        {
                          "key": "schema.__root_schema__.children.col8.borderRadius"
                        },
                        {
                          "key": "schema.__root_schema__.children.col9.accentColor"
                        },
                        {
                          "key": "schema.__root_schema__.children.col9.borderRadius"
                        },
                        {
                          "key": "schema.__root_schema__.children.col10.accentColor"
                        },
                        {
                          "key": "schema.__root_schema__.children.col10.borderRadius"
                        },
                        {
                          "key": "schema.__root_schema__.children.col11.accentColor"
                        },
                        {
                          "key": "schema.__root_schema__.children.col11.borderRadius"
                        },
                        {
                          "key": "schema.__root_schema__.children.col12.accentColor"
                        },
                        {
                          "key": "schema.__root_schema__.children.col12.borderRadius"
                        }
                      ],
                      "sourceData": "{{_.omit(data_table.tableData[0], \"customColumn1\", \"__primaryKey__\")}}",
                      "showReset": true,
                      "resetButtonLabel": "Reset",
                      "key": "h9l9ozr8op",
                      "labelTextSize": "0.875rem",
                      "backgroundColor": "#fff",
                      "rightColumn": 64,
                      "dynamicHeight": "FIXED",
                      "autoGenerateForm": true,
                      "widgetId": "o8oiq6vwkk",
                      "resetButtonStyles": {
                        "boxShadow": "none",
                        "borderRadius": "{{appsmith.theme.borderRadius.appBorderRadius}}",
                        "buttonColor": "{{appsmith.theme.colors.primaryColor}}",
                        "buttonVariant": "SECONDARY"
                      },
                      "isVisible": "true",
                      "version": 1,
                      "parentId": "9rhv3ioohq",
                      "renderMode": "CANVAS",
                      "isLoading": false,
                      "scrollContents": true,
                      "fixedFooter": true,
                      "submitButtonLabel": "Submit",
                      "childStylesheet": {
                        "CHECKBOX": {
                          "borderRadius": "{{appsmith.theme.borderRadius.appBorderRadius}}",
                          "accentColor": "{{appsmith.theme.colors.primaryColor}}"
                        },
                        "ARRAY": {
                          "boxShadow": "none",
                          "borderRadius": "{{appsmith.theme.borderRadius.appBorderRadius}}",
                          "accentColor": "{{appsmith.theme.colors.primaryColor}}",
                          "cellBorderRadius": "{{appsmith.theme.borderRadius.appBorderRadius}}",
                          "cellBoxShadow": "none"
                        },
                        "CURRENCY_INPUT": {
                          "boxShadow": "none",
                          "borderRadius": "{{appsmith.theme.borderRadius.appBorderRadius}}",
                          "accentColor": "{{appsmith.theme.colors.primaryColor}}"
                        },
                        "DATEPICKER": {
                          "boxShadow": "none",
                          "borderRadius": "{{appsmith.theme.borderRadius.appBorderRadius}}",
                          "accentColor": "{{appsmith.theme.colors.primaryColor}}"
                        },
                        "PHONE_NUMBER_INPUT": {
                          "boxShadow": "none",
                          "borderRadius": "{{appsmith.theme.borderRadius.appBorderRadius}}",
                          "accentColor": "{{appsmith.theme.colors.primaryColor}}"
                        },
                        "OBJECT": {
                          "boxShadow": "none",
                          "borderRadius": "{{appsmith.theme.borderRadius.appBorderRadius}}",
                          "cellBorderRadius": "{{appsmith.theme.borderRadius.appBorderRadius}}",
                          "cellBoxShadow": "none"
                        },
                        "MULTISELECT": {
                          "boxShadow": "none",
                          "borderRadius": "{{appsmith.theme.borderRadius.appBorderRadius}}",
                          "accentColor": "{{appsmith.theme.colors.primaryColor}}"
                        },
                        "SELECT": {
                          "boxShadow": "none",
                          "borderRadius": "{{appsmith.theme.borderRadius.appBorderRadius}}",
                          "accentColor": "{{appsmith.theme.colors.primaryColor}}"
                        },
                        "NUMBER_INPUT": {
                          "boxShadow": "none",
                          "borderRadius": "{{appsmith.theme.borderRadius.appBorderRadius}}",
                          "accentColor": "{{appsmith.theme.colors.primaryColor}}"
                        },
                        "PASSWORD_INPUT": {
                          "boxShadow": "none",
                          "borderRadius": "{{appsmith.theme.borderRadius.appBorderRadius}}",
                          "accentColor": "{{appsmith.theme.colors.primaryColor}}"
                        },
                        "EMAIL_INPUT": {
                          "boxShadow": "none",
                          "borderRadius": "{{appsmith.theme.borderRadius.appBorderRadius}}",
                          "accentColor": "{{appsmith.theme.colors.primaryColor}}"
                        },
                        "RADIO_GROUP": {
                          "boxShadow": "none",
                          "accentColor": "{{appsmith.theme.colors.primaryColor}}"
                        },
                        "SWITCH": {
                          "boxShadow": "none",
                          "accentColor": "{{appsmith.theme.colors.primaryColor}}"
                        },
                        "TEXT_INPUT": {
                          "boxShadow": "none",
                          "borderRadius": "{{appsmith.theme.borderRadius.appBorderRadius}}",
                          "accentColor": "{{appsmith.theme.colors.primaryColor}}"
                        },
                        "MULTILINE_TEXT_INPUT": {
                          "boxShadow": "none",
                          "borderRadius": "{{appsmith.theme.borderRadius.appBorderRadius}}",
                          "accentColor": "{{appsmith.theme.colors.primaryColor}}"
                        }
                      },
                      "disabledWhenInvalid": true,
                      "borderRadius": "{{appsmith.theme.borderRadius.appBorderRadius}}",
                      "maxDynamicHeight": 9000,
                      "minDynamicHeight": 4
                    }
                  ],
                  "isDisabled": false,
                  "labelTextSize": "0.875rem",
                  "rightColumn": 453.1875,
                  "detachFromLayout": true,
                  "widgetId": "9rhv3ioohq",
                  "isVisible": "true",
                  "version": 1,
                  "parentId": "vmorzie6eq",
                  "isLoading": false,
                  "borderRadius": "0px"
                }
              ],
              "height": 884,
              "labelTextSize": "0.875rem",
              "rightColumn": 41,
              "detachFromLayout": true,
              "dynamicHeight": "FIXED",
              "widgetId": "vmorzie6eq",
              "canOutsideClickClose": true,
              "canEscapeKeyClose": true,
              "version": 2,
              "parentId": "0",
              "isLoading": false,
              "borderRadius": "0px",
              "maxDynamicHeight": 9000,
              "width": 532,
              "minDynamicHeight": 4
            },
            {
              "schema": {
                "__root_schema__": {
                  "labelTextSize": "0.875rem",
                  "identifier": "__root_schema__",
                  "boxShadow": "none",
                  "isRequired": false,
                  "isCustomField": false,
                  "defaultValue": "{{((sourceData, formData, fieldState) => (sourceData))(update_form.sourceData, update_form.formData, update_form.fieldState)}}",
                  "dataType": "object",
                  "cellBorderRadius": "{{appsmith.theme.borderRadius.appBorderRadius}}",
                  "accessor": "__root_schema__",
                  "isVisible": true,
                  "label": "",
                  "originalIdentifier": "__root_schema__",
                  "borderRadius": "{{appsmith.theme.borderRadius.appBorderRadius}}",
                  "children": {
                    "codice_autorizzazione": {
                      "children": {},
                      "dataType": "string",
                      "defaultValue": "{{((sourceData, formData, fieldState) => (sourceData.codice_autorizzazione))(update_form.sourceData, update_form.formData, update_form.fieldState)}}",
                      "fieldType": "Text Input",
                      "sourceData": "123",
                      "isCustomField": false,
                      "accessor": "codice_autorizzazione",
                      "identifier": "codice_autorizzazione",
                      "position": 0,
                      "originalIdentifier": "codice_autorizzazione",
                      "boxShadow": "none",
                      "borderRadius": "{{((sourceData, formData, fieldState) => ((appsmith.theme.borderRadius.appBorderRadius)))(update_form.sourceData, update_form.formData, update_form.fieldState)}}",
                      "accentColor": "{{((sourceData, formData, fieldState) => ((appsmith.theme.colors.primaryColor)))(update_form.sourceData, update_form.formData, update_form.fieldState)}}",
                      "iconAlign": "left",
                      "isDisabled": false,
                      "isRequired": false,
                      "isSpellCheck": false,
                      "isVisible": true,
                      "labelTextSize": "0.875rem",
                      "label": "Codice Autorizzazione"
                    },
                    "descrizione": {
                      "children": {},
                      "dataType": "string",
                      "defaultValue": "{{((sourceData, formData, fieldState) => (sourceData.descrizione))(update_form.sourceData, update_form.formData, update_form.fieldState)}}",
                      "fieldType": "Text Input",
                      "sourceData": "prova",
                      "isCustomField": false,
                      "accessor": "descrizione",
                      "identifier": "descrizione",
                      "position": 1,
                      "originalIdentifier": "descrizione",
                      "boxShadow": "none",
                      "borderRadius": "{{((sourceData, formData, fieldState) => ((appsmith.theme.borderRadius.appBorderRadius)))(update_form.sourceData, update_form.formData, update_form.fieldState)}}",
                      "accentColor": "{{((sourceData, formData, fieldState) => ((appsmith.theme.colors.primaryColor)))(update_form.sourceData, update_form.formData, update_form.fieldState)}}",
                      "iconAlign": "left",
                      "isDisabled": false,
                      "isRequired": false,
                      "isSpellCheck": false,
                      "isVisible": true,
                      "labelTextSize": "0.875rem",
                      "label": "Descrizione"
                    },
                    "data_inizio": {
                      "children": {},
                      "dataType": "null",
                      "defaultValue": "{{((sourceData, formData, fieldState) => (sourceData.data_inizio))(update_form.sourceData, update_form.formData, update_form.fieldState)}}",
                      "fieldType": "Text Input",
                      "isCustomField": false,
                      "accessor": "data_inizio",
                      "identifier": "data_inizio",
                      "position": 2,
                      "originalIdentifier": "data_inizio",
                      "boxShadow": "none",
                      "borderRadius": "{{((sourceData, formData, fieldState) => ((appsmith.theme.borderRadius.appBorderRadius)))(update_form.sourceData, update_form.formData, update_form.fieldState)}}",
                      "accentColor": "{{((sourceData, formData, fieldState) => ((appsmith.theme.colors.primaryColor)))(update_form.sourceData, update_form.formData, update_form.fieldState)}}",
                      "iconAlign": "left",
                      "isDisabled": false,
                      "isRequired": false,
                      "isSpellCheck": false,
                      "isVisible": true,
                      "labelTextSize": "0.875rem",
                      "label": "Data Inizio"
                    },
                    "data_fine_programmata": {
                      "children": {},
                      "dataType": "null",
                      "defaultValue": "{{((sourceData, formData, fieldState) => (sourceData.data_fine_programmata))(update_form.sourceData, update_form.formData, update_form.fieldState)}}",
                      "fieldType": "Text Input",
                      "isCustomField": false,
                      "accessor": "data_fine_programmata",
                      "identifier": "data_fine_programmata",
                      "position": 3,
                      "originalIdentifier": "data_fine_programmata",
                      "boxShadow": "none",
                      "borderRadius": "{{((sourceData, formData, fieldState) => ((appsmith.theme.borderRadius.appBorderRadius)))(update_form.sourceData, update_form.formData, update_form.fieldState)}}",
                      "accentColor": "{{((sourceData, formData, fieldState) => ((appsmith.theme.colors.primaryColor)))(update_form.sourceData, update_form.formData, update_form.fieldState)}}",
                      "iconAlign": "left",
                      "isDisabled": false,
                      "isRequired": false,
                      "isSpellCheck": false,
                      "isVisible": true,
                      "labelTextSize": "0.875rem",
                      "label": "Data Fine Programmata"
                    },
                    "data_fine_effettiva": {
                      "children": {},
                      "dataType": "null",
                      "defaultValue": "{{((sourceData, formData, fieldState) => (sourceData.data_fine_effettiva))(update_form.sourceData, update_form.formData, update_form.fieldState)}}",
                      "fieldType": "Text Input",
                      "isCustomField": false,
                      "accessor": "data_fine_effettiva",
                      "identifier": "data_fine_effettiva",
                      "position": 4,
                      "originalIdentifier": "data_fine_effettiva",
                      "boxShadow": "none",
                      "borderRadius": "{{((sourceData, formData, fieldState) => ((appsmith.theme.borderRadius.appBorderRadius)))(update_form.sourceData, update_form.formData, update_form.fieldState)}}",
                      "accentColor": "{{((sourceData, formData, fieldState) => ((appsmith.theme.colors.primaryColor)))(update_form.sourceData, update_form.formData, update_form.fieldState)}}",
                      "iconAlign": "left",
                      "isDisabled": false,
                      "isRequired": false,
                      "isSpellCheck": false,
                      "isVisible": true,
                      "labelTextSize": "0.875rem",
                      "label": "Data Fine Effettiva"
                    },
                    "geom": {
                      "children": {},
                      "dataType": "null",
                      "defaultValue": "{{((sourceData, formData, fieldState) => (sourceData.geom))(update_form.sourceData, update_form.formData, update_form.fieldState)}}",
                      "fieldType": "Text Input",
                      "isCustomField": false,
                      "accessor": "geom",
                      "identifier": "geom",
                      "position": 5,
                      "originalIdentifier": "geom",
                      "boxShadow": "none",
                      "borderRadius": "{{((sourceData, formData, fieldState) => ((appsmith.theme.borderRadius.appBorderRadius)))(update_form.sourceData, update_form.formData, update_form.fieldState)}}",
                      "accentColor": "{{((sourceData, formData, fieldState) => ((appsmith.theme.colors.primaryColor)))(update_form.sourceData, update_form.formData, update_form.fieldState)}}",
                      "iconAlign": "left",
                      "isDisabled": false,
                      "isRequired": false,
                      "isSpellCheck": false,
                      "isVisible": true,
                      "labelTextSize": "0.875rem",
                      "label": "Geom"
                    },
                    "url_documenti": {
                      "children": {},
                      "dataType": "null",
                      "defaultValue": "{{((sourceData, formData, fieldState) => (sourceData.url_documenti))(update_form.sourceData, update_form.formData, update_form.fieldState)}}",
                      "fieldType": "Text Input",
                      "isCustomField": false,
                      "accessor": "url_documenti",
                      "identifier": "url_documenti",
                      "position": 6,
                      "originalIdentifier": "url_documenti",
                      "boxShadow": "none",
                      "borderRadius": "{{((sourceData, formData, fieldState) => ((appsmith.theme.borderRadius.appBorderRadius)))(update_form.sourceData, update_form.formData, update_form.fieldState)}}",
                      "accentColor": "{{((sourceData, formData, fieldState) => ((appsmith.theme.colors.primaryColor)))(update_form.sourceData, update_form.formData, update_form.fieldState)}}",
                      "iconAlign": "left",
                      "isDisabled": false,
                      "isRequired": false,
                      "isSpellCheck": false,
                      "isVisible": true,
                      "labelTextSize": "0.875rem",
                      "label": "Url Documenti"
                    },
                    "idsito": {
                      "children": {},
                      "dataType": "number",
                      "defaultValue": "{{((sourceData, formData, fieldState) => (sourceData.idsito))(update_form.sourceData, update_form.formData, update_form.fieldState)}}",
                      "fieldType": "Number Input",
                      "sourceData": 1,
                      "isCustomField": false,
                      "accessor": "idsito",
                      "identifier": "idsito",
                      "position": 7,
                      "originalIdentifier": "idsito",
                      "boxShadow": "none",
                      "borderRadius": "{{((sourceData, formData, fieldState) => ((appsmith.theme.borderRadius.appBorderRadius)))(update_form.sourceData, update_form.formData, update_form.fieldState)}}",
                      "accentColor": "{{((sourceData, formData, fieldState) => ((appsmith.theme.colors.primaryColor)))(update_form.sourceData, update_form.formData, update_form.fieldState)}}",
                      "iconAlign": "left",
                      "isDisabled": false,
                      "isRequired": false,
                      "isSpellCheck": false,
                      "isVisible": true,
                      "labelTextSize": "0.875rem",
                      "label": "Idsito"
                    }
                  },
                  "position": -1,
                  "isDisabled": false,
                  "sourceData": {
                    "col4": true,
                    "col2": "skill B",
                    "col3": 9,
                    "col1": 5
                  },
                  "cellBoxShadow": "none",
                  "fieldType": "Object"
                }
              },
              "boxShadow": "{{appsmith.theme.boxShadow.appBoxShadow}}",
              "widgetName": "update_form",
              "submitButtonStyles": {
                "boxShadow": "none",
                "borderRadius": "{{appsmith.theme.borderRadius.appBorderRadius}}",
                "buttonColor": "{{appsmith.theme.colors.primaryColor}}",
                "buttonVariant": "PRIMARY"
              },
              "borderColor": "#fff",
              "dynamicPropertyPathList": [
                {
                  "key": "schema.__root_schema__.children.date_of_birth.defaultValue"
                },
                {
                  "key": "isVisible"
                },
                {
                  "key": "borderRadius"
                },
                {
                  "key": "onSubmit"
                }
              ],
              "displayName": "JSON Form",
              "iconSVG": "/static/media/icon.6bacf7df.svg",
              "onSubmit": "{{UpdateQuery.run(() => SelectQuery.run(), (error) => showAlert(`Error while updating resource!\\n ${error}`,'error'))}}",
              "topRow": 14,
              "bottomRow": 86,
              "fieldLimitExceeded": false,
              "parentRowSpace": 10,
              "title": "Modifica idcantiere: {{data_table.selectedRow.idcantiere}}",
              "type": "JSON_FORM_WIDGET",
              "hideCard": false,
              "animateLoading": true,
              "parentColumnSpace": 16.3125,
              "dynamicTriggerPathList": [
                {
                  "key": "onSubmit"
                }
              ],
              "leftColumn": 39,
              "dynamicBindingPathList": [
                {
                  "key": "schema.__root_schema__.defaultValue"
                },
                {
                  "key": "sourceData"
                },
                {
                  "key": "isVisible"
                },
                {
                  "key": "schema.__root_schema__.borderRadius"
                },
                {
                  "key": "schema.__root_schema__.cellBorderRadius"
                },
                {
                  "key": "title"
                },
                {
                  "key": "resetButtonStyles.buttonColor"
                },
                {
                  "key": "resetButtonStyles.borderRadius"
                },
                {
                  "key": "borderRadius"
                },
                {
                  "key": "boxShadow"
                },
                {
                  "key": "submitButtonStyles.borderRadius"
                },
                {
                  "key": "submitButtonStyles.buttonColor"
                },
                {
                  "key": "schema.__root_schema__.children.codice_autorizzazione.defaultValue"
                },
                {
                  "key": "schema.__root_schema__.children.codice_autorizzazione.borderRadius"
                },
                {
                  "key": "schema.__root_schema__.children.codice_autorizzazione.accentColor"
                },
                {
                  "key": "schema.__root_schema__.children.descrizione.defaultValue"
                },
                {
                  "key": "schema.__root_schema__.children.descrizione.borderRadius"
                },
                {
                  "key": "schema.__root_schema__.children.descrizione.accentColor"
                },
                {
                  "key": "schema.__root_schema__.children.data_inizio.defaultValue"
                },
                {
                  "key": "schema.__root_schema__.children.data_inizio.borderRadius"
                },
                {
                  "key": "schema.__root_schema__.children.data_inizio.accentColor"
                },
                {
                  "key": "schema.__root_schema__.children.data_fine_programmata.defaultValue"
                },
                {
                  "key": "schema.__root_schema__.children.data_fine_programmata.borderRadius"
                },
                {
                  "key": "schema.__root_schema__.children.data_fine_programmata.accentColor"
                },
                {
                  "key": "schema.__root_schema__.children.data_fine_effettiva.defaultValue"
                },
                {
                  "key": "schema.__root_schema__.children.data_fine_effettiva.borderRadius"
                },
                {
                  "key": "schema.__root_schema__.children.data_fine_effettiva.accentColor"
                },
                {
                  "key": "schema.__root_schema__.children.geom.defaultValue"
                },
                {
                  "key": "schema.__root_schema__.children.geom.borderRadius"
                },
                {
                  "key": "schema.__root_schema__.children.geom.accentColor"
                },
                {
                  "key": "schema.__root_schema__.children.url_documenti.defaultValue"
                },
                {
                  "key": "schema.__root_schema__.children.url_documenti.borderRadius"
                },
                {
                  "key": "schema.__root_schema__.children.url_documenti.accentColor"
                },
                {
                  "key": "schema.__root_schema__.children.idsito.defaultValue"
                },
                {
                  "key": "schema.__root_schema__.children.idsito.borderRadius"
                },
                {
                  "key": "schema.__root_schema__.children.idsito.accentColor"
                }
              ],
              "borderWidth": "0",
              "sourceData": "{{_.omit(data_table.selectedRow, \"customColumn1\", \"__originalIndex__\", \"idcantiere\")}}",
              "showReset": true,
              "resetButtonLabel": "Reset",
              "key": "h9l9ozr8op",
              "labelTextSize": "0.875rem",
              "backgroundColor": "#FFFFFF",
              "rightColumn": 64,
              "dynamicHeight": "FIXED",
              "autoGenerateForm": true,
              "widgetId": "y5cjzuxnb3",
              "resetButtonStyles": {
                "boxShadow": "none",
                "borderRadius": "{{appsmith.theme.borderRadius.appBorderRadius}}",
                "buttonColor": "{{appsmith.theme.colors.primaryColor}}",
                "buttonVariant": "SECONDARY"
              },
              "isVisible": "{{!!data_table.selectedRow.idcantiere}}",
              "version": 1,
              "parentId": "0",
              "renderMode": "CANVAS",
              "isLoading": false,
              "scrollContents": true,
              "fixedFooter": true,
              "submitButtonLabel": "Modifica",
              "childStylesheet": {
                "CHECKBOX": {
                  "borderRadius": "{{appsmith.theme.borderRadius.appBorderRadius}}",
                  "accentColor": "{{appsmith.theme.colors.primaryColor}}"
                },
                "ARRAY": {
                  "boxShadow": "none",
                  "borderRadius": "{{appsmith.theme.borderRadius.appBorderRadius}}",
                  "accentColor": "{{appsmith.theme.colors.primaryColor}}",
                  "cellBorderRadius": "{{appsmith.theme.borderRadius.appBorderRadius}}",
                  "cellBoxShadow": "none"
                },
                "CURRENCY_INPUT": {
                  "boxShadow": "none",
                  "borderRadius": "{{appsmith.theme.borderRadius.appBorderRadius}}",
                  "accentColor": "{{appsmith.theme.colors.primaryColor}}"
                },
                "DATEPICKER": {
                  "boxShadow": "none",
                  "borderRadius": "{{appsmith.theme.borderRadius.appBorderRadius}}",
                  "accentColor": "{{appsmith.theme.colors.primaryColor}}"
                },
                "PHONE_NUMBER_INPUT": {
                  "boxShadow": "none",
                  "borderRadius": "{{appsmith.theme.borderRadius.appBorderRadius}}",
                  "accentColor": "{{appsmith.theme.colors.primaryColor}}"
                },
                "OBJECT": {
                  "boxShadow": "none",
                  "borderRadius": "{{appsmith.theme.borderRadius.appBorderRadius}}",
                  "cellBorderRadius": "{{appsmith.theme.borderRadius.appBorderRadius}}",
                  "cellBoxShadow": "none"
                },
                "MULTISELECT": {
                  "boxShadow": "none",
                  "borderRadius": "{{appsmith.theme.borderRadius.appBorderRadius}}",
                  "accentColor": "{{appsmith.theme.colors.primaryColor}}"
                },
                "SELECT": {
                  "boxShadow": "none",
                  "borderRadius": "{{appsmith.theme.borderRadius.appBorderRadius}}",
                  "accentColor": "{{appsmith.theme.colors.primaryColor}}"
                },
                "NUMBER_INPUT": {
                  "boxShadow": "none",
                  "borderRadius": "{{appsmith.theme.borderRadius.appBorderRadius}}",
                  "accentColor": "{{appsmith.theme.colors.primaryColor}}"
                },
                "PASSWORD_INPUT": {
                  "boxShadow": "none",
                  "borderRadius": "{{appsmith.theme.borderRadius.appBorderRadius}}",
                  "accentColor": "{{appsmith.theme.colors.primaryColor}}"
                },
                "EMAIL_INPUT": {
                  "boxShadow": "none",
                  "borderRadius": "{{appsmith.theme.borderRadius.appBorderRadius}}",
                  "accentColor": "{{appsmith.theme.colors.primaryColor}}"
                },
                "RADIO_GROUP": {
                  "boxShadow": "none",
                  "accentColor": "{{appsmith.theme.colors.primaryColor}}"
                },
                "SWITCH": {
                  "boxShadow": "none",
                  "accentColor": "{{appsmith.theme.colors.primaryColor}}"
                },
                "TEXT_INPUT": {
                  "boxShadow": "none",
                  "borderRadius": "{{appsmith.theme.borderRadius.appBorderRadius}}",
                  "accentColor": "{{appsmith.theme.colors.primaryColor}}"
                },
                "MULTILINE_TEXT_INPUT": {
                  "boxShadow": "none",
                  "borderRadius": "{{appsmith.theme.borderRadius.appBorderRadius}}",
                  "accentColor": "{{appsmith.theme.colors.primaryColor}}"
                }
              },
              "disabledWhenInvalid": true,
              "borderRadius": "{{appsmith.theme.borderRadius.appBorderRadius}}",
              "maxDynamicHeight": 9000,
              "minDynamicHeight": 4
            }
          ]
        },
        "layoutOnLoadActions": [
          [
            {
              "id": "Cantieri_SelectQuery",
              "name": "SelectQuery",
              "confirmBeforeExecute": false,
              "pluginType": "DB",
              "jsonPathKeys": [
                "data_table.sortOrder.column || 'idcantiere'",
                "data_table.sortOrder.order || 'ASC'",
                "data_table.pageSize",
                "data_table.searchText || \"\"",
                "(data_table.pageNo - 1) * data_table.pageSize"
              ],
              "timeoutInMillisecond": 10000
            }
          ]
        ],
        "layoutOnLoadActionErrors": [],
        "validOnPageLoadActions": true,
        "id": "Cantieri",
        "deleted": false,
        "policies": [],
        "userPermissions": []
      }
    ],
    "userPermissions": [],
    "policies": [],
    "isHidden": false
  },
  "deleted": false,
  "gitSyncId": "64b7ec81e310d573901af7c1_64c8b82b34855a570130d4ac"
}